{
  "images" : [
    {
      "filename" : "1891021_approved_check_checkbox_checkmark_confirm_icon.png",
      "idiom" : "universal"
    }
  ],
  "info" : {
    "author" : "xcode",
    "version" : 1
  }
}
